{
  "formatVersion": 1,
  "database": {
    "version": 1,
    "identityHash": "d4dade94219e0b5f56155ad7c55b4a4f",
    "entities": [
      {
        "tableName": "favorite_records",
        "createSql": "CREATE TABLE IF NOT EXISTS `${TABLE_NAME}` (`id` INTEGER PRIMARY KEY AUTOINCREMENT NOT NULL, `uid` TEXT NOT NULL, `thumb_url` TEXT, `title` TEXT NOT NULL, `authors` TEXT NOT NULL, `bookFragmentUrl` TEXT NOT NULL)",
        "fields": [
          {
            "fieldPath": "id",
            "columnName": "id",
            "affinity": "INTEGER",
            "notNull": true
          },
          {
            "fieldPath": "uid",
            "columnName": "uid",
            "affinity": "TEXT",
            "notNull": true
          },
          {
            "fieldPath": "thumbUrl",
            "columnName": "thumb_url",
            "affinity": "TEXT",
            "notNull": false
          },
          {
            "fieldPath": "title",
            "columnName": "title",
            "affinity": "TEXT",
            "notNull": true
          },
          {
            "fieldPath": "authors",
            "columnName": "authors",
            "affinity": "TEXT",
            "notNull": true
          },
          {
            "fieldPath": "bookFragmentUrl",
            "columnName": "bookFragmentUrl",
            "affinity": "TEXT",
            "notNull": true
          }
        ],
        "primaryKey": {
          "columnNames": [
            "id"
          ],
          "autoGenerate": true
        },
        "indices": [
          {
            "name": "index_favorite_records_uid",
            "unique": true,
            "columnNames": [
              "uid"
            ],
            "createSql": "CREATE UNIQUE INDEX IF NOT EXISTS `index_favorite_records_uid` ON `${TABLE_NAME}` (`uid`)"
          }
        ],
        "foreignKeys": []
      }
    ],
    "views": [],
    "setupQueries": [
      "CREATE TABLE IF NOT EXISTS room_master_table (id INTEGER PRIMARY KEY,identity_hash TEXT)",
      "INSERT OR REPLACE INTO room_master_table (id,identity_hash) VALUES(42, 'd4dade94219e0b5f56155ad7c55b4a4f')"
    ]
  }
}